6306 Case Study 1
…
# find num breweries per state
brew_state = bnb_temp %>%
  group_by(StateLN) %>%
  summarise(n_brew = length(unique(Brewery_id)))
# concatenate state name and num breweries
brew_state_str = brew_state %>%
  unite(brew_state,StateLN,n_brew,sep = " - ")
#add * to max brewery state
brew_state_str = brew_state_str %>%
  mutate(brew_state = if_else(str_detect(brew_state_str$brew_state,"Colorado"),
                              paste(brew_state,"*",sep = ""),
                              brew_state))
brew_state

## # A tibble: 51 × 2
##    StateLN              n_brew
##    <chr>                 <int>
##  1 Alabama                   3
##  2 Alaska                    7
##  3 Arizona                  11
##  4 Arkansas                  2
##  5 California               39
##  6 Colorado                 46
##  7 Connecticut               8
##  8 Delaware                  2
##  9 District of Columbia      1
## 10 Florida                  15
## # … with 41 more rows
…
